{
    "LV": [
        "Stabsstelle Bundesfreiwilligendienst",
        "Landesverband Bremen, Niedersachsen",
        "Landesverband Nordrhein-Westfalen",
        "Landesverband Baden-Württemberg",
        "Landesverband Berlin, Brandenburg, Sachsen-Anhalt",
        "Landesverband Hessen, Rheinland-Pfalz, Saarland",
        "Landesverband Sachsen, Thüringen",
        "Landesverband Hamburg, Mecklenburg-Vorpommern, Schleswig-Holstein",
        "Landesverband Bayern"
    ],
    "einheit": [
        "Fachgruppe Führung/Kommunikation",
        "1. Technischer Zug",
        "2. Technischer Zug",
        "Technischer Zug",
        "Fachgruppe Logistik",
        "3. Technischer Zug"
    ],
    "teileinheit": [
        "Führungstrupp",
        "Fernmeldetrupp",
        "Führungs- und Kommunikationstrupp",
        "Zugtrupp",
        "Bergungsgruppe",
        "Fachgruppe Räumen Typ B",
        "Fachgruppe Sprengen",
        "Fachgruppe Notversorgung und Notinstandsetzung",
        "Fachgruppe Wasserschaden/Pumpen (A)",
        "Fachgruppe Räumen Typ A",
        "Fachgruppe Infrastruktur",
        "Fachgruppe Elektroversorgung",
        "Fachgruppe Wassergefahren Typ A",
        "Logistik-Führungstrupp",
        "Logistik-Materialerhaltungstrupp",
        "Logistik-Verpflegungstrupp",
        "Trupp Einsatzstellensicherung",
        "Fachgruppe Ortung (C)",
        "Fachgruppe Trinkwasserversorgung",
        "Fachgruppe Räumen Typ C",
        "Fachgruppe Schwere Bergung (a)",
        "Trupp Mobiler Hochwasserpegel",
        "Fachgruppe Wasserschaden/Pumpen (B)",
        "Fachgruppe Brückenbau",
        "Fachgruppe Ölschaden, allg.",
        "Fachgruppe Wassergefahren Typ B",
        "Fachgruppe Wasserschaden/Pumpen (C)",
        "2. Fachgruppe Ortung (C)",
        "Weitverkehrstrupp",
        "Fachgruppe Ortung (B)",
        "Fachgruppe Ortung (A)",
        "Fachgruppe Schwere Bergung (b)",
        "2. Fachgruppe Ortung (A)",
        "2. Fachgruppe Ölschaden, allg.",
        "1. Fachgruppe Ölschaden, allg.",
        "2. Fachgruppe Brückenbau",
        "1. Fachgruppe Brückenbau",
        "1. Fachgruppe Ortung (C)"
    ],
    "rst": [
        "Regionalstelle Braunschweig",
        "Regionalstelle Bremen",
        "Regionalstelle Buxtehude",
        "Regionalstelle Göttingen",
        "Regionalstelle Hannover",
        "Regionalstelle Lingen",
        "Regionalstelle Oldenburg",
        "Regionalstelle Verden",
        "Regionalstelle Aachen",
        "Regionalstelle Arnsberg",
        "Regionalstelle Bielefeld",
        "Regionalstelle Bochum",
        "Regionalstelle Dortmund",
        "Regionalstelle Düsseldorf",
        "Regionalstelle Gelsenkirchen",
        "Regionalstelle Köln",
        "Regionalstelle Mönchengladbach",
        "Regionalstelle Münster",
        "Regionalstelle Olpe",
        "Regionalstelle Wesel",
        "Regionalstelle Biberach",
        "Regionalstelle Freiburg",
        "Regionalstelle Göppingen",
        "Regionalstelle Heilbronn",
        "Regionalstelle Karlsruhe",
        "Regionalstelle Mannheim",
        "Regionalstelle Stuttgart",
        "Regionalstelle Tübingen",
        "Regionalstelle Villingen-Schwenningen",
        "Regionalstelle Berlin",
        "Regionalstelle Frankfurt/Oder",
        "Regionalstelle Halle",
        "Regionalstelle Magdeburg",
        "Regionalstelle Potsdam",
        "Regionalstelle Bad Kreuznach",
        "Regionalstelle Darmstadt",
        "Regionalstelle Frankfurt",
        "Regionalstelle Gelnhausen",
        "Regionalstelle Gießen",
        "Regionalstelle Homberg",
        "Regionalstelle Koblenz",
        "Regionalstelle Merzig",
        "Regionalstelle Neustadt a.d.W.",
        "Regionalstelle Saarbrücken",
        "Regionalstelle Trier",
        "Regionalstelle Chemnitz",
        "Regionalstelle Dresden",
        "Regionalstelle Erfurt",
        "Regionalstelle Leipzig",
        "Regionalstelle Hamburg",
        "Regionalstelle Lübeck",
        "Regionalstelle Neumünster",
        "Regionalstelle Schleswig",
        "Regionalstelle Schwerin",
        "Regionalstelle Stralsund",
        "Regionalstelle Bad Tölz",
        "Regionalstelle Bamberg",
        "Regionalstelle Hof",
        "Regionalstelle Ingolstadt",
        "Regionalstelle Karlstadt",
        "Regionalstelle Kempten",
        "Regionalstelle Mühldorf",
        "Regionalstelle München",
        "Regionalstelle Nürnberg",
        "Regionalstelle Schwandorf",
        "Regionalstelle Straubing"
    ]
}